Stroke_Prediction_Analysis_Group_C
…
The dataset is fairly clean. Only the the features bmi and smoking_status have missing values. Let’s change all missing values to N/A and ensure that bmi is recognized as a numerical variable. Additionally, the id column will be removed, because it is of no use for the future.

cleaned_stroke_tb <- replace_with_na(data = stroke_tb, 
                                     replace = list(bmi = c("N/A"), smoking_status = c("Unknown"))) %>%
  mutate(bmi = as.numeric(bmi)) %>%
  select(-id)

cleaned_stroke_tb

# A tibble: 5,110 × 11
   gender   age hypertension heart_disease ever_married work_type Residence_type
   <chr>  <dbl>        <int>         <int> <chr>        <chr>     <chr>         
 1 Male      67            0             1 Yes          Private   Urban         
 2 Female    61            0             0 Yes          Self-emp… Rural         
 3 Male      80            0             1 Yes          Private   Rural         
 4 Female    49            0             0 Yes          Private   Urban         
 5 Female    79            1             0 Yes          Self-emp… Rural         
 6 Male      81            0             0 Yes          Private   Urban         
 7 Male      74            1             1 Yes          Private   Rural         
 8 Female    69            0             0 No           Private   Urban         
 9 Female    59            0             0 Yes          Private   Rural         
10 Female    78            0             0 Yes          Private   Urban         
# ℹ 5,100 more rows
# ℹ 4 more variables: avg_glucose_level <dbl>, bmi <dbl>, smoking_status <chr>,
#   stroke <int>
…
# Calculate the median for bmi and the mode for smoking_status
bmi_median <- median(cleaned_stroke_tb$bmi, na.rm = TRUE)
smoking_status_mode <- names(which.max(table(cleaned_stroke_tb$smoking_status, useNA = "no")))

# Create preprocessed data by replacing NA values
preprocessed_stroke_tb <- cleaned_stroke_tb %>%
  mutate(
    bmi = ifelse(is.na(bmi), bmi_median, bmi),
    smoking_status = ifelse(is.na(smoking_status), smoking_status_mode, smoking_status)
  )

preprocessed_stroke_tb

# A tibble: 5,110 × 11
   gender   age hypertension heart_disease ever_married work_type Residence_type
   <chr>  <dbl>        <int>         <int> <chr>        <chr>     <chr>         
 1 Male      67            0             1 Yes          Private   Urban         
 2 Female    61            0             0 Yes          Self-emp… Rural         
 3 Male      80            0             1 Yes          Private   Rural         
 4 Female    49            0             0 Yes          Private   Urban         
 5 Female    79            1             0 Yes          Self-emp… Rural         
 6 Male      81            0             0 Yes          Private   Urban         
 7 Male      74            1             1 Yes          Private   Rural         
 8 Female    69            0             0 No           Private   Urban         
 9 Female    59            0             0 Yes          Private   Rural         
10 Female    78            0             0 Yes          Private   Urban         
# ℹ 5,100 more rows
# ℹ 4 more variables: avg_glucose_level <dbl>, bmi <dbl>, smoking_status <chr>,
#   stroke <int>

2.3 Categorical Feature Encoding

To make use of our categorical variables in our predictive model, we need to convert them into dummy variables. We use the fastDummies package for the One Hot Encoding.

library(fastDummies)

encoded_stroke_tb <- dummy_cols(preprocessed_stroke_tb, select_columns=categorical_variables_1, remove_selected_columns = TRUE)

encoded_stroke_tb

# A tibble: 5,110 × 21
     age hypertension heart_disease avg_glucose_level   bmi stroke gender_Female
   <dbl>        <int>         <int>             <dbl> <dbl>  <int>         <int>
 1    67            0             1             229.   36.6      1             0
 2    61            0             0             202.   28.1      1             1
 3    80            0             1             106.   32.5      1             0
 4    49            0             0             171.   34.4      1             1
 5    79            1             0             174.   24        1             1
 6    81            0             0             186.   29        1             0
 7    74            1             1              70.1  27.4      1             0
 8    69            0             0              94.4  22.8      1             1
 9    59            0             0              76.2  28.1      1             1
10    78            0             0              58.6  24.2      1             1
# ℹ 5,100 more rows
# ℹ 14 more variables: gender_Male <int>, gender_Other <int>,
#   ever_married_No <int>, ever_married_Yes <int>, work_type_children <int>,
#   work_type_Govt_job <int>, work_type_Never_worked <int>,
#   work_type_Private <int>, `work_type_Self-employed` <int>,
#   Residence_type_Rural <int>, Residence_type_Urban <int>,
#   `smoking_status_formerly smoked` <int>, …
…
Classification algorithms are often sensitive to scales. To prevent perturbations we standardize all continuous features in the dataset.

–> finished balanced dataset as input :

scaled_stroke_tb <- encoded_stroke_tb

#Scale only the double columns

scaled_stroke_tb[sapply(scaled_stroke_tb, is.double)] <- lapply(scaled_stroke_tb[sapply(scaled_stroke_tb, is.double)], scale)

scaled_stroke_tb <- as_tibble(scaled_stroke_tb)

scaled_stroke_tb

# A tibble: 5,110 × 21
   age[,1] hypertension heart_disease avg_glucose_level[,1] bmi[,1] stroke
     <dbl>        <int>         <int>                 <dbl>   <dbl> <fct> 
 1   1.05             0             1               2.71     1.00   1     
 2   0.786            0             0               2.12    -0.0990 1     
 3   1.63             0             1              -0.00503  0.472  1     
 4   0.255            0             0               1.44     0.719  1     
 5   1.58             1             0               1.50    -0.631  1     
 6   1.67             0             0               1.77     0.0179 1     
 7   1.36             1             1              -0.796   -0.190  1     
 8   1.14             0             0              -0.260   -0.787  1     
 9   0.698            0             0              -0.662   -0.0990 1     
10   1.54             0             0              -1.05    -0.605  1     
# ℹ 5,100 more rows
# ℹ 15 more variables: gender_Female <int>, gender_Male <int>,
#   gender_Other <int>, ever_married_No <int>, ever_married_Yes <int>,
#   work_type_children <int>, work_type_Govt_job <int>,
#   work_type_Never_worked <int>, work_type_Private <int>,
#   `work_type_Self-employed` <int>, Residence_type_Rural <int>,
#   Residence_type_Urban <int>, `smoking_status_formerly smoked` <int>, …
…
